{
  "images" : [
    {
      "idiom" : "universal",
      "filename" : "ic_play_circle_filled_white_24px copy.png",
      "scale" : "1x"
    },
    {
      "idiom" : "universal",
      "filename" : "ic_play_circle_filled_white_24px copy2x.png",
      "scale" : "2x"
    },
    {
      "idiom" : "universal",
      "filename" : "ic_play_circle_filled_white_24px copy3x.png",
      "scale" : "3x"
    }
  ],
  "info" : {
    "version" : 1,
    "author" : "xcode"
  }
}